{
  "run": [
    {
      "filePath": "/financefscmapptest/index.html",
      "previewMode": 1,
      "dataMode": 1,
      "workspace": "withoutWorkspace",
      "ui5ActiveVersion": null,
      "ui5VerSource": null,
      "isDefaultVersion": 0,
      "urlParameters": [
        {
          "paramName": "",
          "paramValue": "",
          "paramActive": false
        },
        {
          "paramName": "",
          "paramValue": "",
          "paramActive": false
        }
      ],
      "hashParameter": "",
      "backendSystem": [
        {
          "source": "sprgps",
          "destinations": "sprgps"
        }
      ],
      "_metadata": {
        "id": 2005378,
        "runnerId": "webapprunner",
        "displayName": "SAP FSCM WebApp Test"
      }
    }
  ]
}